
{
    "figurer" : [
                 {
                 "navn": "Asha",
                 "drengekøn": "false",
                 "fuldtNavn": "Asha Musahar",
                 "beskrivelse": "Asha Musahar er en sød pige, men hun er meget fattig,\nså det bliver svært for hende at nå 10. klasse",
                 "beskrivelse_hjemme": "Hej jeg hedder Asha. Jeg bor med min familie i en landsby i Nepal. \nMin mor og far har aldrig gået i skole, så de tjener ikke så mange penge, så det er svært for dem at hjælpe mig med at få en uddannelse.",
                 "startpenge": 0,
                 "startviden": 0,
                 
                 "uheld": [
                           { "titel" : "Du er blevet syg!",
                           "tekst" : "Du er blevet syg og har derfor halvt så meget tid i denne uge.",
                           "tidFaktor" : 0.5
                           },
                           { "titel" : "Dine forældre har brug for penge",
                           "tekst" : "Dine forældre har brugt nogle af dine penge. -20kr",
                           "pengeForskel" : -20
                           },
                           { "titel" : "Det er blevet regntid!",
                           "tekst" : "Det er blevet regntid, og det øser ned. Du har ingen paraply, så du bliver hjemme. - 5 viden og ugen er gået",
                           "videnForskel" : -5,
                           "tidFaktor" : 0.1
                           },
                           { "titel" : "Maden du har spiste var dårlig",
                           "tekst" : "Du er nu mere sulten. -30 mad",
                           "madForskel" : 0.5
                           },
                           { "titel" : "Undervisningen var kedelig",
                           "tekst" : "Undervisningen var kedelig, så du faldt i søvn. -10 viden og ugen er gået",
                           "videnForskel" : -10,
                           "tidFaktor" : 0.1
                           },
                           { "titel" : "Din lillebror er blevet syg",
                           "tekst" : "Du må blive hjemme og passe ham. -10 viden og ugen er gået",
                           "videnForskel" : -10,
                           "tidFaktor" : 0.1
                           },
                           { "titel" : "Dine forældre har brug for penge",
                           "tekst" : "Dine forældre har brugt nogle af dine penge. -20kr",
                           "pengeForskel" : -20
                           },
                           { "titel" : "Du har købt slik for dine penge",
                           "tekst" : "Du har brugt dine penge på slik. Nu har du ondt i maven. - 20 penge og ugen er gået",
                           "pengeForskel" : -20,
                           "tidFaktor" : 0.1
                           },
                           { "titel" : "Du skal passe geden",
                           "tekst" : "Din mor er ikke hjemme i dag, så du må blive hjemme og passe jeres ged. - 10 viden og ugen er gået",
                           "videnForskel" : -10,
                           "tidFaktor" : 0.1
                           },
                           { "titel" : "Nepal bandha - Skolen er lukket",
                           "tekst" : "Der er generalstrejke, så skolen og butikkerne holder lukket. - 10 viden og ugen er gået",
                           "videnForskel" : -10,
                           "tidFaktor" : 0.1
                           },
                           { "titel" : "Du har købt nudler",
                           "tekst" : "Du har brugt dine penge på nudler. Så nu har du ikke penge til sund mad. - 10 penge og ugen er gået",
                           "pengeForskel" : -10,
                           "tidFaktor" : 0.1
                           },
                           { "titel" : "Det er blevet regntid!",
                           "tekst" : "Det er blevet regntid, og det øser ned. Du har ingen paraply, så du bliver hjemme. - 10 viden og ugen er gået",
                           "videnForskel" : -10,
                           "tidFaktor" : 0.1
                           },
                           { "titel" : "Jeres høne er løbet væk",
                           "tekst" : "Hønen er borte og du må hjælpe med at lede. - 20 viden og ugen er gået",
                           "videnForskel" : -20,
                           "tidFaktor" : 0.1
                           }]
                 },
                 {
                 "navn": "Krishna",
                 "drengekøn": "true",
                 "fuldtNavn": "Krishna Pariyar",
                 "beskrivelse": "Krishna Pariyar kommer fra en fattig familie og har det svært i skolen.\nDet bliver ikke helt nemt at nå 10. klasse",
                 "beskrivelse_hjemme": "Hej jeg hedder Krishna. Jeg bor med min familie i en landsby i Nepal. \nMin mor og far har aldrig gået i skole, så de tjener ikke så mange penge, så det er svært for dem at hjælpe mig med at få en uddannelse.",
                 "startpenge": 5,
                 "startviden": 0,
                 
                 "uheld": [
                           { "titel" : "Du er blevet syg!",
                           "tekst" : "Du er blevet syg og har derfor halvt så meget tid i denne uge.",
                           "tidFaktor" : 0.5
                           },
                           { "titel" : "Dine forældre har brug for penge",
                           "tekst" : "Dine forældre skal bruge nogle af dine penge til mad. -20kr",
                           "pengeForskel" : -20
                           },
                           { "titel" : "Din lillebror er blevet syg",
                           "tekst" : "Du må give din lillebror noget af din mad, så han kan blive hurtigt rask. -30 mad",
                           "madForskel" : 0.5
                           },
                           { "titel" : "Undervisningen var kedelig",
                           "tekst" : "Undervisningen var kedelig, så du faldt i søvn. -5 viden",
                           "videnForskel" : -5,
                           "tidFaktor" : 0.1
                           },
                           { "titel" : "Det er blevet regntid!",
                           "tekst" : "Det er blevet regntid, og det øser ned. Du har ingen paraply, så du bliver hjemme. - 5 viden og ugen er gået",
                           "videnForskel" : -5,
                           "tidFaktor" : 0.1
                           },
                           { "titel" : "Nepal bandha - Skolen er lukket",
                           "tekst" : "Der er generalstrejke, så skolen og butikkerne holder lukket. - 10 viden og ugen er gået",
                           "videnForskel" : -10,
                           "tidFaktor" : 0.1
                           },
                           { "titel" : "Du har købt nudler for dine penge",
                           "tekst" : "Du har brugt dine penge på nudler, så nu har du færre penge til sund mad. - 10 penge og ugen er gået",
                           "pengeForskel" : -10,
                           "tidFaktor" : 0.1
                           }]
                 },
                 {
                 "navn": "Laxmi",
                 "drengekøn": "false",
                 "fuldtNavn": "Laxmi Kunwar",
                 "beskrivelse": "Laxmi Kunwar er en klog pige, hendes forældre har ikke så mange penge,\nmen med din hjælp skal hun nok nå 10. klasse",
                 "beskrivelse_hjemme": "Hej jeg hedder Laxmi. Jeg bor med min familie i en landsby i Nepal. \nMin far har fast arbejde som buschauffør, så vi får mad nok de fleste dage, men mine forældre kan ikke hjælpe mig med lektierne.",
                 "startpenge": 10,
                 "startviden": 10,
                 
                 "uheld": [
                           { "titel" : "Du er blevet syg!",
                           "tekst" : "Du er blevet syg og har derfor halvt så meget tid i denne uge.",
                           "tidFaktor" : 0.5
                           },
                           { "titel" : "Du skulle hjælpe din mor med at vaske tøj",
                           "tekst" : "Så ugen er gået og du fik ikke studeret nok. -5 viden",
                           "videnForskel" : -5,
                           "tidFaktor" : 0.1
                           },
                           { "titel" : "Undervisningen var kedelig",
                           "tekst" : "Undervisningen var kedelig, så du faldt i søvn. -5 viden og ugen er gået",
                           "videnForskel" : -5,
                           "tidFaktor" : 0.1
                           },
                           { "titel" : "Nepal bandha - Skolen er lukket",
                           "tekst" : "Der er generalstrejke, så skolen og butikkerne holder lukket. - 10 viden og ugen er gået",
                           "videnForskel" : -10,
                           "tidFaktor" : 0.1
                           },
                           { "titel" : "Det er blevet regntid!",
                           "tekst" : "Det er blevet regntid og det øser ned. Du har ingen paraply, så du bliver hjemme. - 5 viden og ugen er gået",
                           "videnForskel" : -5,
                           "tidFaktor" : 0.1
                           },
                           { "titel" : "Du har fået en solcellelygte",
                           "tekst" : "Du har fået en læselampe, som kører på solceller, så nu kan du læse lektier, når der er strømafbrydelse. + 10 viden",
                           "videnForskel" : 10
                           },
                           { "titel" : "Dine forældre har høstet ris",
                           "tekst" : "Dine forældre har høstet risen på den mark de har lejet, så du får mere mad. + 20 mad",
                           "madForskel" : 20,
                           }]
                 },
                 {
                 "navn": "Kamal",
                 "drengekøn": "true",
                 "fuldtNavn": "Kamal Pandey",
                 "beskrivelse": "Kamal Pandey kommer fra en familie med et par køer og en lille rismark.\nMed din hjælp klarer han nemt 10. klasse",
                 "beskrivelse_hjemme": "Hej jeg hedder Kamal. Jeg bor med min familie i en landsby i Nepal. \nMin mor og far har gået i skole til 5.klasse, og deres højeste ønske er at få mig på universitetet, så jeg får aldrig lov at blive hjemme eller droppe lektierne.",
                 "startpenge": 50,
                 "startviden": 30,
                 
                 "uheld": [
                           { "titel" : "Du er blevet syg!",
                           "tekst" : "Du er blevet syg og har derfor halvt så meget tid i denne uge.",
                           "tidFaktor" : 0.5
                           },
                           { "titel" : "Ekstra penge til skolesager",
                           "tekst" : "Din mor og far giver dig penge så du kan købe skolesager og klare dig bedre i skolen. Du får 20kr",
                           "pengeForskel" : 20
                           },
                           { "titel" : "Du skal til bryllup",
                           "tekst" : "Du er inviteret til din tantes bryllup i Kathmandu, så du kommer ikke i skole i denne uge. Minus 10 viden",
                           "videnForskel" : -10
                           },
                           { "titel" : "Ekstra penge til skolesager",
                           "tekst" : "Din mor og far giver dig penge så du kan købe skolesager og klare dig bedre i skolen. Du får 20 kr",
                           "pengeForskel" : 20
                           },
                           { "titel" : "Du får en flidspræmie",
                           "tekst" : "Du er blevet kåret til klassens dygtigste elev og modtager en flidspræmie. + 10 viden",
                           "videnForskel" : 10
                           },
                           { "titel" : "Du læser til eksamen",
                           "tekst" : "Du vil ud og spille fodbold, men dine forældre siger du skal blive hjemme og læse til eksamen. + 20 viden",
                           "videnForskel" : 20
                           },
                           { "titel" : "Nepal bandha - Skolen er lukket",
                           "tekst" : "Der er generalstrejke, så skolen og butikkerne holder lukket. - 10 viden og ugen er gået",
                           "videnForskel" : -10,
                           "tidFaktor" : 0
                           },
                           { "titel" : "Du får en paraply",
                           "tekst" : "Det er blevet regntid, så din mor køber dig en ny paraply , så du kan komme i skole selvom det regner. + 15 viden",
                           "videnForskel" : 15
                           },
                           { "titel" : "Du læser til eksamen",
                           "tekst" : "Du vil ud og lege med dine venner, men dine forældre siger, at du skal blive hjemme og læse til eksamen. + 25 viden",
                           "videnForskel" : 25
                           },
                           { "titel" : "Du får en flidspræmie",
                           "tekst" : "Du er blevet kåret til klassens dygtigste elev og modtager en flidspræmie. + 20 viden",
                           "videnForskel" : 20
                           }]
                 }],
    "characterQuestions": [
                           
                           {
                           "question": "Hvad spiser nepalesiske børn til morgenmad?",
                           "answerFirst": "Havregryn med mælk",
                           "answerSecond": "Grød",
                           "answerThird": "Ris og grøntsager",
                           "trueAnswer": "Ris og grøntsager"
                           },
                           {
                           "question": "Går nepalesiske skolebørn med skoleuniform?",
                           "answerFirst": "Nej, det har de ikke råd til",
                           "answerSecond": "Ja næsten alle har en skoleuniform",
                           "answerThird": "Nogle skoler bruger uniform andre gør ikke",
                           "trueAnswer": "Ja næsten alle har en skoleuniform"
                           },
                           {
                           "question": "Hvorfor er det godt, at børnene får skolemad?",
                           "answerFirst": "Så kan de bedre koncentrere sig i timerne",
                           "answerSecond": "Så behøver de ikke selv tage mad med.",
                           "answerThird": "Så føles dagen længere.",
                           "trueAnswer": "Så kan de bedre koncentrere sig i timerne"
                           },
                           {
                           "question": "Er det gratis at gå i skole i Nepal?",
                           "answerFirst": "De fleste skoler opkræver skolepenge",
                           "answerSecond": "Det er altid gratis",
                           "answerThird": "Det koster altid penge",
                           "trueAnswer": "De fleste skoler opkræver skolepenge"
                           },
                           {
                           "question": "Hvilke ingredienser bruges blandt andet i nepalesisk skolemad?",
                           "answerFirst": "Brød og kød",
                           "answerSecond": "Ris, løg, hvidløg og chili",
                           "answerThird": "Nudler og chips",
                           "trueAnswer": "Ris, løg, hvidløg og chili"
                           },
                           {
                           "question": "Hvilke kornsorter dyrker man i Nepal?",
                           "answerFirst": "byg og rug",
                           "answerSecond": "ris og hvede",
                           "answerThird": "havre og quinoa",
                           "trueAnswer": "ris og hvede"
                           },
                           {
                           "question": "Hvad tid starter den offentlige skole i Nepal?",
                           "answerFirst": "Kl. 10",
                           "answerSecond": "Kl. 9",
                           "answerThird": "Kl. 8",
                           "trueAnswer": "Kl. 10"
                           },
                           {
                           "question": "Hvad tid slutter skolen i Nepal?",
                           "answerFirst": "Det er forskelligt",
                           "answerSecond": "Kl. 14",
                           "answerThird": "kl. 16",
                           "trueAnswer": "kl. 16"
                           },
                           {
                           "question": "Er der privatskoler i Nepal?",
                           "answerFirst": "Ja, mange.",
                           "answerSecond": "Nej, det har de ikke råd til.",
                           "answerThird": "Nogle få",
                           "trueAnswer": "Ja, mange."
                           },
                           {
                           "question": "Hvor tit går børnene til eksamen i Nepal?",
                           "answerFirst": "Efter 3. klasse",
                           "answerSecond": "Efter hvert skoleår",
                           "answerThird": "Efter 10. klasse",
                           "trueAnswer": "Efter hvert skoleår"
                           },
                           {
                           "question": "Hvem går i folkeskolen i Nepal?",
                           "answerFirst": "cirka halvdelen",
                           "answerSecond": "Næsten alle",
                           "answerThird": "De fattige",
                           "trueAnswer": "De fattige"
                           },
                           {
                           "question": "Er undervisningen i den nepalesiske folkeskole god nok?",
                           "answerFirst": "Nej desværre er den tit dårlig",
                           "answerSecond": "Ja da alle skolerne er vildt gode",
                           "answerThird": "De fleste er gode",
                           "trueAnswer": "Nej desværre er den tit dårlig"
                           },
                           {
                           "question": "Hvorfor er det vigtigt, at børn i Nepal lærer noget?",
                           "answerFirst": "Fordi de skal have en uddannelse og et bedre liv.",
                           "answerSecond": "Fordi de kommer til at kede sig derhjemme.",
                           "answerThird": "Fordi de ikke kan lide at være alene hjemme",
                           "trueAnswer": "Fordi de skal have en uddannelse og et bedre liv."
                           },
                           {
                           "question": "Kan man tage en uddannelse i Nepal, hvis man ikke har bestået 10. klasse?",
                           "answerFirst": "Ja, det er let nok",
                           "answerSecond": "Kun hvis man spørger pænt",
                           "answerThird": "Nej, man skal have 10. klasse for at få en uddannelse",
                           "trueAnswer": "Nej, man skal have 10. klasse for at få en uddannelse"
                           },
                           {
                           "question": "Hvorfor er der mange fattige børn i Nepal, som ikke laver lektier?",
                           "answerFirst": "De behøver ikke lave lektier",
                           "answerSecond": "Deres forældre sætter dem ikke i gang",
                           "answerThird": "Hindureligionen forbyder lektier",
                           "trueAnswer": "Deres forældre sætter dem ikke i gang"
                           },
                           {
                           "question": "Hvilken usund snack er nepalesiske børn vilde med?",
                           "answerFirst": "vingummi",
                           "answerSecond": "lakrids",
                           "answerThird": "nudler",
                           "trueAnswer": "nudler"
                           },
                           {
                           "question": "Hvad skal børn i Nepal kunne til eksamen?",
                           "answerFirst": "De skal kunne tænke selvstændigt",
                           "answerSecond": "De skal kunne deres bøger udenad",
                           "answerThird": "De skal kunne forstå, hvad der står i bøgerne.",
                           "trueAnswer": "De skal kunne deres bøger udenad"
                           },
                           {
                           "question": "Bliver der snydt til eksamen i Nepal?",
                           "answerFirst": "Nej da! Hvordan kunne du tro det!",
                           "answerSecond": "Ja det er helt almindeligt",
                           "answerThird": "En sjælden gang i mellem, men lærerne holder godt øje",
                           "trueAnswer": "Ja det er helt almindeligt"
                           }]
}




